{"msg":"init","dagFile":"artifacts/tundra.dag","targets":[]}
{"msg":"enqueueNode","enqueuedNodeAnnotation":"all_tundra_nodes","enqueuedNodeIndex":0}
{"msg":"enqueueNode","enqueuedNodeAnnotation":"Il2Cpp /Users/yuta-kashiwagi/Desktop/Unity/MyGames/ReleaseGame/ChildChallenge/Library/Il2cppBuildCache/Android/arm64-v8a/Native/arm64-v8a/libil2cpp.so","enqueuedNodeIndex":1,"enqueueingNodeAnnotation":"all_tundra_nodes","enqueueingNodeIndex":0}
{"msg":"inputSignatureChanged","annotation":"Il2Cpp /Users/yuta-kashiwagi/Desktop/Unity/MyGames/ReleaseGame/ChildChallenge/Library/Il2cppBuildCache/Android/arm64-v8a/Native/arm64-v8a/libil2cpp.so","index":1,"changes":[{"key":"Action","value":"\"/Applications/Unity/Hub/Editor/2020.3.16f1/Unity.app/Contents/il2cpp/build/deploy/netcoreapp3.1/il2cpp\" --compile-cpp --libil2cpp-static --platform=\"Android\" --architecture=\"ARM64\" --configuration=\"Release\" --outputpath=\"/Users/yuta-kashiwagi/Desktop/Unity/MyGames/ReleaseGame/ChildChallenge/Library/Il2cppBuildCache/Android/arm64-v8a/Native/arm64-v8a/libil2cpp.so\" --cachedirectory=\"/Users/yuta-kashiwagi/Desktop/Unity/MyGames/ReleaseGame/ChildChallenge/Assets/../Library/il2cpp_android_arm64-v8a/il2cpp_cache\" --additional-include-directories=\"/Applications/Unity/Hub/Editor/2020.3.16f1/PlaybackEngines/AndroidPlayer/Tools/bdwgc/include\" --additional-include-directories=\"/Applications/Unity/Hub/Editor/2020.3.16f1/PlaybackEngines/AndroidPlayer/Tools/libil2cpp/include\" --baselib-directory=\"/Applications/Unity/Hub/Editor/2020.3.16f1/PlaybackEngines/AndroidPlayer/Variations/il2cpp/Release/StaticLibs/arm64-v8a\" --avoid-dynamic-library-copy --tool-chain-path=\"/Applications/Unity/Hub/Editor/2020.3.16f1/PlaybackEngines/AndroidPlayer/NDK\" --profiler-report --map-file-parser=\"/Applications/Unity/Hub/Editor/2020.3.16f1/Unity.app/Contents/Tools/MapFileParser/MapFileParser\" --generatedcppdir=\"/Users/yuta-kashiwagi/Desktop/Unity/MyGames/ReleaseGame/ChildChallenge/Library/Il2cppBuildCache/Android/armeabi-v7a/il2cppOutput\" --dotnetprofile=\"unityaot\"","oldvalue":"\"/Applications/Unity/Hub/Editor/2020.3.16f1/Unity.app/Contents/il2cpp/build/deploy/netcoreapp3.1/il2cpp\" --convert-to-cpp --emit-null-checks --enable-array-bounds-check --dotnetprofile=\"unityaot\" --compile-cpp --libil2cpp-static --platform=\"Android\" --architecture=\"ARM64\" --configuration=\"Release\" --outputpath=\"/Users/yuta-kashiwagi/Desktop/Unity/MyGames/ReleaseGame/ChildChallenge/Library/Il2cppBuildCache/Android/arm64-v8a/Native/arm64-v8a/libil2cpp.so\" --cachedirectory=\"/Users/yuta-kashiwagi/Desktop/Unity/MyGames/ReleaseGame/ChildChallenge/Assets/../Library/il2cpp_android_arm64-v8a/il2cpp_cache\" --additional-include-directories=\"/Applications/Unity/Hub/Editor/2020.3.16f1/PlaybackEngines/AndroidPlayer/Tools/bdwgc/include\" --additional-include-directories=\"/Applications/Unity/Hub/Editor/2020.3.16f1/PlaybackEngines/AndroidPlayer/Tools/libil2cpp/include\" --baselib-directory=\"/Applications/Unity/Hub/Editor/2020.3.16f1/PlaybackEngines/AndroidPlayer/Variations/il2cpp/Release/StaticLibs/arm64-v8a\" --avoid-dynamic-library-copy --tool-chain-path=\"/Applications/Unity/Hub/Editor/2020.3.16f1/PlaybackEngines/AndroidPlayer/NDK\" --profiler-report --map-file-parser=\"/Applications/Unity/Hub/Editor/2020.3.16f1/Unity.app/Contents/Tools/MapFileParser/MapFileParser\" --directory=\"/Users/yuta-kashiwagi/Desktop/Unity/MyGames/ReleaseGame/ChildChallenge/Temp/StagingArea/assets/bin/Data/Managed\" --generatedcppdir=\"/Users/yuta-kashiwagi/Desktop/Unity/MyGames/ReleaseGame/ChildChallenge/Library/Il2cppBuildCache/Android/arm64-v8a/il2cppOutput\""},{"key":"InputFileList","value":["/Users/yuta-kashiwagi/Desktop/Unity/MyGames/ReleaseGame/ChildChallenge/Library/Il2cppBuildCache/Android/armeabi-v7a/il2cppOutput/Assembly-CSharp-firstpass.cpp","/Users/yuta-kashiwagi/Desktop/Unity/MyGames/ReleaseGame/ChildChallenge/Library/Il2cppBuildCache/Android/armeabi-v7a/il2cppOutput/Assembly-CSharp-firstpass_Attr.cpp","/Users/yuta-kashiwagi/Desktop/Unity/MyGames/ReleaseGame/ChildChallenge/Library/Il2cppBuildCache/Android/armeabi-v7a/il2cppOutput/Assembly-CSharp-firstpass_CodeGen.c","/Users/yuta-kashiwagi/Desktop/Unity/MyGames/ReleaseGame/ChildChallenge/Library/Il2cppBuildCache/Android/armeabi-v7a/il2cppOutput/Assembly-CSharp.cpp","/Users/yuta-kashiwagi/Desktop/Unity/MyGames/ReleaseGame/ChildChallenge/Library/Il2cppBuildCache/Android/armeabi-v7a/il2cppOutput/Assembly-CSharp_Attr.cpp","/Users/yuta-kashiwagi/Desktop/Unity/MyGames/ReleaseGame/ChildChallenge/Library/Il2cppBuildCache/Android/armeabi-v7a/il2cppOutput/Assembly-CSharp_CodeGen.c","/Users/yuta-kashiwagi/Desktop/Unity/MyGames/ReleaseGame/ChildChallenge/Library/Il2cppBuildCache/Android/armeabi-v7a/il2cppOutput/DOTween.cpp","/Users/yuta-kashiwagi/Desktop/Unity/MyGames/ReleaseGame/ChildChallenge/Library/Il2cppBuildCache/Android/armeabi-v7a/il2cppOutput/DOTween1.cpp","/Users/yuta-kashiwagi/Desktop/Unity/MyGames/ReleaseGame/ChildChallenge/Library/Il2cppBuildCache/Android/armeabi-v7a/il2cppOutput/DOTween2.cpp","/Users/yuta-kashiwagi/Desktop/Unity/MyGames/ReleaseGame/ChildChallenge/Library/Il2cppBuildCache/Android/armeabi-v7a/il2cppOutput/DOTween_Attr.cpp","/Users/yuta-kashiwagi/Desktop/Unity/MyGames/ReleaseGame/ChildChallenge/Library/Il2cppBuildCache/Android/armeabi-v7a/il2cppOutput/DOTween_CodeGen.c","/Users/yuta-kashiwagi/Desktop/Unity/MyGames/ReleaseGame/ChildChallenge/Library/Il2cppBuildCache/Android/armeabi-v7a/il2cppOutput/GenericMethods.cpp","/Users/yuta-kashiwagi/Desktop/Unity/MyGames/ReleaseGame/ChildChallenge/Library/Il2cppBuildCache/Android/armeabi-v7a/il2cppOutput/GenericMethods1.cpp","/Users/yuta-kashiwagi/Desktop/Unity/MyGames/ReleaseGame/ChildChallenge/Library/Il2cppBuildCache/Android/armeabi-v7a/il2cppOutput/GenericMethods2.cpp","/Users/yuta-kashiwagi/Desktop/Unity/MyGames/ReleaseGame/ChildChallenge/Library/Il2cppBuildCache/Android/armeabi-v7a/il2cppOutput/GenericMethods3.cpp","/Users/yuta-kashiwagi/Desktop/Unity/MyGames/ReleaseGame/ChildChallenge/Library/Il2cppBuildCache/Android/armeabi-v7a/il2cppOutput/GenericMethods4.cpp","/Users/yuta-kashiwagi/Desktop/Unity/MyGames/ReleaseGame/ChildChallenge/Library/Il2cppBuildCache/Android/armeabi-v7a/il2cppOutput/Generics.cpp","/Users/yuta-kashiwagi/Desktop/Unity/MyGames/ReleaseGame/ChildChallenge/Library/Il2cppBuildCache/Android/armeabi-v7a/il2cppOutput/Generics1.cpp","/Users/yuta-kashiwagi/Desktop/Unity/MyGames/ReleaseGame/ChildChallenge/Library/Il2cppBuildCache/Android/armeabi-v7a/il2cppOutput/Generics2.cpp","/Users/yuta-kashiwagi/Desktop/Unity/MyGames/ReleaseGame/ChildChallenge/Library/Il2cppBuildCache/Android/armeabi-v7a/il2cppOutput/Generics3.cpp","/Users/yuta-kashiwagi/Desktop/Unity/MyGames/ReleaseGame/ChildChallenge/Library/Il2cppBuildCache/Android/armeabi-v7a/il2cppOutput/Generics4.cpp","/Users/yuta-kashiwagi/Desktop/Unity/MyGames/ReleaseGame/ChildChallenge/Library/Il2cppBuildCache/Android/armeabi-v7a/il2cppOutput/Generics5.cpp","/Users/yuta-kashiwagi/Desktop/Unity/MyGames/ReleaseGame/ChildChallenge/Library/Il2cppBuildCache/Android/armeabi-v7a/il2cppOutput/Generics6.cpp","/Users/yuta-kashiwagi/Desktop/Unity/MyGames/ReleaseGame/ChildChallenge/Library/Il2cppBuildCache/Android/armeabi-v7a/il2cppOutput/Il2CppCCFieldValuesTable.cpp","/Users/yuta-kashiwagi/Desktop/Unity/MyGames/ReleaseGame/ChildChallenge/Library/Il2cppBuildCache/Android/armeabi-v7a/il2cppOutput/Il2CppCCTypeValuesTable.cpp","/Users/yuta-kashiwagi/Desktop/Unity/MyGames/ReleaseGame/ChildChallenge/Library/Il2cppBuildCache/Android/armeabi-v7a/il2cppOutput/Il2CppCCalculateFieldValues.cpp","/Users/yuta-kashiwagi/Desktop/Unity/MyGames/ReleaseGame/ChildChallenge/Library/Il2cppBuildCache/Android/armeabi-v7a/il2cppOutput/Il2CppCCalculateTypeValues.cpp","/Users/yuta-kashiwagi/Desktop/Unity/MyGames/ReleaseGame/ChildChallenge/Library/Il2cppBuildCache/Android/armeabi-v7a/il2cppOutput/Il2CppCodeRegistration.cpp","/Users/yuta-kashiwagi/Desktop/Unity/MyGames/ReleaseGame/ChildChallenge/Library/Il2cppBuildCache/Android/armeabi-v7a/il2cppOutput/Il2CppGenericAdjustorThunkTable.cpp","/Users/yuta-kashiwagi/Desktop/Unity/MyGames/ReleaseGame/ChildChallenge/Library/Il2cppBuildCache/Android/armeabi-v7a/il2cppOutput/Il2CppGenericClassTable.c","/Users/yuta-kashiwagi/Desktop/Unity/MyGames/ReleaseGame/ChildChallenge/Library/Il2cppBuildCache/Android/armeabi-v7a/il2cppOutput/Il2CppGenericComDefinitions.cpp","/Users/yuta-kashiwagi/Desktop/Unity/MyGames/ReleaseGame/ChildChallenge/Library/Il2cppBuildCache/Android/armeabi-v7a/il2cppOutput/Il2CppGenericComDefinitions1.cpp","/Users/yuta-kashiwagi/Desktop/Unity/MyGames/ReleaseGame/ChildChallenge/Library/Il2cppBuildCache/Android/armeabi-v7a/il2cppOutput/Il2CppGenericComDefinitions10.cpp","/Users/yuta-kashiwagi/Desktop/Unity/MyGames/ReleaseGame/ChildChallenge/Library/Il2cppBuildCache/Android/armeabi-v7a/il2cppOutput/Il2CppGenericComDefinitions11.cpp","/Users/yuta-kashiwagi/Desktop/Unity/MyGames/ReleaseGame/ChildChallenge/Library/Il2cppBuildCache/Android/armeabi-v7a/il2cppOutput/Il2CppGenericComDefinitions12.cpp","/Users/yuta-kashiwagi/Desktop/Unity/MyGames/ReleaseGame/ChildChallenge/Library/Il2cppBuildCache/Android/armeabi-v7a/il2cppOutput/Il2CppGenericComDefinitions13.cpp","/Users/yuta-kashiwagi/Desktop/Unity/MyGames/ReleaseGame/ChildChallenge/Library/Il2cppBuildCache/Android/armeabi-v7a/il2cppOutput/Il2CppGenericComDefinitions14.cpp","/Users/yuta-kashiwagi/Desktop/Unity/MyGames/ReleaseGame/ChildChallenge/Library/Il2cppBuildCache/Android/armeabi-v7a/il2cppOutput/Il2CppGenericComDefinitions15.cpp","/Users/yuta-kashiwagi/Desktop/Unity/MyGames/ReleaseGame/ChildChallenge/Library/Il2cppBuildCache/Android/armeabi-v7a/il2cppOutput/Il2CppGenericComDefinitions16.cpp","/Users/yuta-kashiwagi/Desktop/Unity/MyGames/ReleaseGame/ChildChallenge/Library/Il2cppBuildCache/Android/armeabi-v7a/il2cppOutput/Il2CppGenericComDefinitions17.cpp","/Users/yuta-kashiwagi/Desktop/Unity/MyGames/ReleaseGame/ChildChallenge/Library/Il2cppBuildCache/Android/armeabi-v7a/il2cppOutput/Il2CppGenericComDefinitions18.cpp","/Users/yuta-kashiwagi/Desktop/Unity/MyGames/ReleaseGame/ChildChallenge/Library/Il2cppBuildCache/Android/armeabi-v7a/il2cppOutput/Il2CppGenericComDefinitions2.cpp","/Users/yuta-kashiwagi/Desktop/Unity/MyGames/ReleaseGame/ChildChallenge/Library/Il2cppBuildCache/Android/armeabi-v7a/il2cppOutput/Il2CppGenericComDefinitions3.cpp","/Users/yuta-kashiwagi/Desktop/Unity/MyGames/ReleaseGame/ChildChallenge/Library/Il2cppBuildCache/Android/armeabi-v7a/il2cppOutput/Il2CppGenericComDefinitions4.cpp","/Users/yuta-kashiwagi/Desktop/Unity/MyGames/ReleaseGame/ChildChallenge/Library/Il2cppBuildCache/Android/armeabi-v7a/il2cppOutput/Il2CppGenericComDefinitions5.cpp","/Users/yuta-kashiwagi/Desktop/Unity/MyGames/ReleaseGame/ChildChallenge/Library/Il2cppBuildCache/Android/armeabi-v7a/il2cppOutput/Il2CppGenericComDefinitions6.cpp","/Users/yuta-kashiwagi/Desktop/Unity/MyGames/ReleaseGame/ChildChallenge/Library/Il2cppBuildCache/Android/armeabi-v7a/il2cppOutput/Il2CppGenericComDefinitions7.cpp","/Users/yuta-kashiwagi/Desktop/Unity/MyGames/ReleaseGame/ChildChallenge/Library/Il2cppBuildCache/Android/armeabi-v7a/il2cppOutput/Il2CppGenericComDefinitions8.cpp","/Users/yuta-kashiwagi/Desktop/Unity/MyGames/ReleaseGame/ChildChallenge/Library/Il2cppBuildCache/Android/armeabi-v7a/il2cppOutput/Il2CppGenericComDefinitions9.cpp","/Users/yuta-kashiwagi/Desktop/Unity/MyGames/ReleaseGame/ChildChallenge/Library/Il2cppBuildCache/Android/armeabi-v7a/il2cppOutput/Il2CppGenericInstDefinitions.c","/Users/yuta-kashiwagi/Desktop/Unity/MyGames/ReleaseGame/ChildChallenge/Library/Il2cppBuildCache/Android/armeabi-v7a/il2cppOutput/Il2CppGenericMethodDefinitions.c","/Users/yuta-kashiwagi/Desktop/Unity/MyGames/ReleaseGame/ChildChallenge/Library/Il2cppBuildCache/Android/armeabi-v7a/il2cppOutput/Il2CppGenericMethodPointerTable.cpp","/Users/yuta-kashiwagi/Desktop/Unity/MyGames/ReleaseGame/ChildChallenge/Library/Il2cppBuildCache/Android/armeabi-v7a/il2cppOutput/Il2CppGenericMethodTable.c","/Users/yuta-kashiwagi/Desktop/Unity/MyGames/ReleaseGame/ChildChallenge/Library/Il2cppBuildCache/Android/armeabi-v7a/il2cppOutput/Il2CppInteropDataTable.cpp","/Users/yuta-kashiwagi/Desktop/Unity/MyGames/ReleaseGame/ChildChallenge/Library/Il2cppBuildCache/Android/armeabi-v7a/il2cppOutput/Il2CppInvokerTable.cpp","/Users/yuta-kashiwagi/Desktop/Unity/MyGames/ReleaseGame/ChildChallenge/Library/Il2cppBuildCache/Android/armeabi-v7a/il2cppOutput/Il2CppMetadataRegistration.c","/Users/yuta-kashiwagi/Desktop/Unity/MyGames/ReleaseGame/ChildChallenge/Library/Il2cppBuildCache/Android/armeabi-v7a/il2cppOutput/Il2CppMetadataUsage.c","/Users/yuta-kashiwagi/Desktop/Unity/MyGames/ReleaseGame/ChildChallenge/Library/Il2cppBuildCache/Android/armeabi-v7a/il2cppOutput/Il2CppReversePInvokeWrapperTable.cpp","/Users/yuta-kashiwagi/Desktop/Unity/MyGames/ReleaseGame/ChildChallenge/Library/Il2cppBuildCache/Android/armeabi-v7a/il2cppOutput/Il2CppTypeDefinitions.c","/Users/yuta-kashiwagi/Desktop/Unity/MyGames/ReleaseGame/ChildChallenge/Library/Il2cppBuildCache/Android/armeabi-v7a/il2cppOutput/Mono.Security.cpp","/Users/yuta-kashiwagi/Desktop/Unity/MyGames/ReleaseGame/ChildChallenge/Library/Il2cppBuildCache/Android/armeabi-v7a/il2cppOutput/Mono.Security_Attr.cpp","/Users/yuta-kashiwagi/Desktop/Unity/MyGames/ReleaseGame/ChildChallenge/Library/Il2cppBuildCache/Android/armeabi-v7a/il2cppOutput/Mono.Security_CodeGen.c","/Users/yuta-kashiwagi/Desktop/Unity/MyGames/ReleaseGame/ChildChallenge/Library/Il2cppBuildCache/Android/armeabi-v7a/il2cppOutput/System.Configuration.cpp","/Users/yuta-kashiwagi/Desktop/Unity/MyGames/ReleaseGame/ChildChallenge/Library/Il2cppBuildCache/Android/armeabi-v7a/il2cppOutput/System.Configuration_Attr.cpp","/Users/yuta-kashiwagi/Desktop/Unity/MyGames/ReleaseGame/ChildChallenge/Library/Il2cppBuildCache/Android/armeabi-v7a/il2cppOutput/System.Configuration_CodeGen.c","/Users/yuta-kashiwagi/Desktop/Unity/MyGames/ReleaseGame/ChildChallenge/Library/Il2cppBuildCache/Android/armeabi-v7a/il2cppOutput/System.Core.cpp","/Users/yuta-kashiwagi/Desktop/Unity/MyGames/ReleaseGame/ChildChallenge/Library/Il2cppBuildCache/Android/armeabi-v7a/il2cppOutput/System.Core_Attr.cpp","/Users/yuta-kashiwagi/Desktop/Unity/MyGames/ReleaseGame/ChildChallenge/Library/Il2cppBuildCache/Android/armeabi-v7a/il2cppOutput/System.Core_CodeGen.c","/Users/yuta-kashiwagi/Desktop/Unity/MyGames/ReleaseGame/ChildChallenge/Library/Il2cppBuildCache/Android/armeabi-v7a/il2cppOutput/System.Xml.cpp","/Users/yuta-kashiwagi/Desktop/Unity/MyGames/ReleaseGame/ChildChallenge/Library/Il2cppBuildCache/Android/armeabi-v7a/il2cppOutput/System.Xml_Attr.cpp","/Users/yuta-kashiwagi/Desktop/Unity/MyGames/ReleaseGame/ChildChallenge/Library/Il2cppBuildCache/Android/armeabi-v7a/il2cppOutput/System.Xml_CodeGen.c","/Users/yuta-kashiwagi/Desktop/Unity/MyGames/ReleaseGame/ChildChallenge/Library/Il2cppBuildCache/Android/armeabi-v7a/il2cppOutput/System.cpp","/Users/yuta-kashiwagi/Desktop/Unity/MyGames/ReleaseGame/ChildChallenge/Library/Il2cppBuildCache/Android/armeabi-v7a/il2cppOutput/System1.cpp","/Users/yuta-kashiwagi/Desktop/Unity/MyGames/ReleaseGame/ChildChallenge/Library/Il2cppBuildCache/Android/armeabi-v7a/il2cppOutput/System2.cpp","/Users/yuta-kashiwagi/Desktop/Unity/MyGames/ReleaseGame/ChildChallenge/Library/Il2cppBuildCache/Android/armeabi-v7a/il2cppOutput/System3.cpp","/Users/yuta-kashiwagi/Desktop/Unity/MyGames/ReleaseGame/ChildChallenge/Library/Il2cppBuildCache/Android/armeabi-v7a/il2cppOutput/System_Attr.cpp","/Users/yuta-kashiwagi/Desktop/Unity/MyGames/ReleaseGame/ChildChallenge/Library/Il2cppBuildCache/Android/armeabi-v7a/il2cppOutput/System_CodeGen.c","/Users/yuta-kashiwagi/Desktop/Unity/MyGames/ReleaseGame/ChildChallenge/Library/Il2cppBuildCache/Android/armeabi-v7a/il2cppOutput/Unity.2D.IK.Runtime.cpp","/Users/yuta-kashiwagi/Desktop/Unity/MyGames/ReleaseGame/ChildChallenge/Library/Il2cppBuildCache/Android/armeabi-v7a/il2cppOutput/Unity.2D.IK.Runtime_Attr.cpp","/Users/yuta-kashiwagi/Desktop/Unity/MyGames/ReleaseGame/ChildChallenge/Library/Il2cppBuildCache/Android/armeabi-v7a/il2cppOutput/Unity.2D.IK.Runtime_CodeGen.c","/Users/yuta-kashiwagi/Desktop/Unity/MyGames/ReleaseGame/ChildChallenge/Library/Il2cppBuildCache/Android/armeabi-v7a/il2cppOutput/UnityEngine.AndroidJNIModule.cpp","/Users/yuta-kashiwagi/Desktop/Unity/MyGames/ReleaseGame/ChildChallenge/Library/Il2cppBuildCache/Android/armeabi-v7a/il2cppOutput/UnityEngine.AndroidJNIModule_Attr.cpp","/Users/yuta-kashiwagi/Desktop/Unity/MyGames/ReleaseGame/ChildChallenge/Library/Il2cppBuildCache/Android/armeabi-v7a/il2cppOutput/UnityEngine.AndroidJNIModule_CodeGen.c","/Users/yuta-kashiwagi/Desktop/Unity/MyGames/ReleaseGame/ChildChallenge/Library/Il2cppBuildCache/Android/armeabi-v7a/il2cppOutput/UnityEngine.AnimationModule.cpp","/Users/yuta-kashiwagi/Desktop/Unity/MyGames/ReleaseGame/ChildChallenge/Library/Il2cppBuildCache/Android/armeabi-v7a/il2cppOutput/UnityEngine.AnimationModule_Attr.cpp","/Users/yuta-kashiwagi/Desktop/Unity/MyGames/ReleaseGame/ChildChallenge/Library/Il2cppBuildCache/Android/armeabi-v7a/il2cppOutput/UnityEngine.AnimationModule_CodeGen.c","/Users/yuta-kashiwagi/Desktop/Unity/MyGames/ReleaseGame/ChildChallenge/Library/Il2cppBuildCache/Android/armeabi-v7a/il2cppOutput/UnityEngine.AudioModule.cpp","/Users/yuta-kashiwagi/Desktop/Unity/MyGames/ReleaseGame/ChildChallenge/Library/Il2cppBuildCache/Android/armeabi-v7a/il2cppOutput/UnityEngine.AudioModule_Attr.cpp","/Users/yuta-kashiwagi/Desktop/Unity/MyGames/ReleaseGame/ChildChallenge/Library/Il2cppBuildCache/Android/armeabi-v7a/il2cppOutput/UnityEngine.AudioModule_CodeGen.c","/Users/yuta-kashiwagi/Desktop/Unity/MyGames/ReleaseGame/ChildChallenge/Library/Il2cppBuildCache/Android/armeabi-v7a/il2cppOutput/UnityEngine.CoreModule.cpp","/Users/yuta-kashiwagi/Desktop/Unity/MyGames/ReleaseGame/ChildChallenge/Library/Il2cppBuildCache/Android/armeabi-v7a/il2cppOutput/UnityEngine.CoreModule1.cpp","/Users/yuta-kashiwagi/Desktop/Unity/MyGames/ReleaseGame/ChildChallenge/Library/Il2cppBuildCache/Android/armeabi-v7a/il2cppOutput/UnityEngine.CoreModule_Attr.cpp","/Users/yuta-kashiwagi/Desktop/Unity/MyGames/ReleaseGame/ChildChallenge/Library/Il2cppBuildCache/Android/armeabi-v7a/il2cppOutput/UnityEngine.CoreModule_CodeGen.c","/Users/yuta-kashiwagi/Desktop/Unity/MyGames/ReleaseGame/ChildChallenge/Library/Il2cppBuildCache/Android/armeabi-v7a/il2cppOutput/UnityEngine.GridModule.cpp","/Users/yuta-kashiwagi/Desktop/Unity/MyGames/ReleaseGame/ChildChallenge/Library/Il2cppBuildCache/Android/armeabi-v7a/il2cppOutput/UnityEngine.GridModule_Attr.cpp","/Users/yuta-kashiwagi/Desktop/Unity/MyGames/ReleaseGame/ChildChallenge/Library/Il2cppBuildCache/Android/armeabi-v7a/il2cppOutput/UnityEngine.GridModule_CodeGen.c","/Users/yuta-kashiwagi/Desktop/Unity/MyGames/ReleaseGame/ChildChallenge/Library/Il2cppBuildCache/Android/armeabi-v7a/il2cppOutput/UnityEngine.IMGUIModule.cpp","/Users/yuta-kashiwagi/Desktop/Unity/MyGames/ReleaseGame/ChildChallenge/Library/Il2cppBuildCache/Android/armeabi-v7a/il2cppOutput/UnityEngine.IMGUIModule_Attr.cpp","/Users/yuta-kashiwagi/Desktop/Unity/MyGames/ReleaseGame/ChildChallenge/Library/Il2cppBuildCache/Android/armeabi-v7a/il2cppOutput/UnityEngine.IMGUIModule_CodeGen.c","/Users/yuta-kashiwagi/Desktop/Unity/MyGames/ReleaseGame/ChildChallenge/Library/Il2cppBuildCache/Android/armeabi-v7a/il2cppOutput/UnityEngine.InputLegacyModule.cpp","/Users/yuta-kashiwagi/Desktop/Unity/MyGames/ReleaseGame/ChildChallenge/Library/Il2cppBuildCache/Android/armeabi-v7a/il2cppOutput/UnityEngine.InputLegacyModule_Attr.cpp","/Users/yuta-kashiwagi/Desktop/Unity/MyGames/ReleaseGame/ChildChallenge/Library/Il2cppBuildCache/Android/armeabi-v7a/il2cppOutput/UnityEngine.InputLegacyModule_CodeGen.c","/Users/yuta-kashiwagi/Desktop/Unity/MyGames/ReleaseGame/ChildChallenge/Library/Il2cppBuildCache/Android/armeabi-v7a/il2cppOutput/UnityEngine.ParticleSystemModule.cpp","/Users/yuta-kashiwagi/Desktop/Unity/MyGames/ReleaseGame/ChildChallenge/Library/Il2cppBuildCache/Android/armeabi-v7a/il2cppOutput/UnityEngine.ParticleSystemModule_Attr.cpp","/Users/yuta-kashiwagi/Desktop/Unity/MyGames/ReleaseGame/ChildChallenge/Library/Il2cppBuildCache/Android/armeabi-v7a/il2cppOutput/UnityEngine.ParticleSystemModule_CodeGen.c","/Users/yuta-kashiwagi/Desktop/Unity/MyGames/ReleaseGame/ChildChallenge/Library/Il2cppBuildCache/Android/armeabi-v7a/il2cppOutput/UnityEngine.Physics2DModule.cpp","/Users/yuta-kashiwagi/Desktop/Unity/MyGames/ReleaseGame/ChildChallenge/Library/Il2cppBuildCache/Android/armeabi-v7a/il2cppOutput/UnityEngine.Physics2DModule_Attr.cpp","/Users/yuta-kashiwagi/Desktop/Unity/MyGames/ReleaseGame/ChildChallenge/Library/Il2cppBuildCache/Android/armeabi-v7a/il2cppOutput/UnityEngine.Physics2DModule_CodeGen.c","/Users/yuta-kashiwagi/Desktop/Unity/MyGames/ReleaseGame/ChildChallenge/Library/Il2cppBuildCache/Android/armeabi-v7a/il2cppOutput/UnityEngine.PhysicsModule.cpp","/Users/yuta-kashiwagi/Desktop/Unity/MyGames/ReleaseGame/ChildChallenge/Library/Il2cppBuildCache/Android/armeabi-v7a/il2cppOutput/UnityEngine.PhysicsModule_Attr.cpp","/Users/yuta-kashiwagi/Desktop/Unity/MyGames/ReleaseGame/ChildChallenge/Library/Il2cppBuildCache/Android/armeabi-v7a/il2cppOutput/UnityEngine.PhysicsModule_CodeGen.c","/Users/yuta-kashiwagi/Desktop/Unity/MyGames/ReleaseGame/ChildChallenge/Library/Il2cppBuildCache/Android/armeabi-v7a/il2cppOutput/UnityEngine.SharedInternalsModule.cpp","/Users/yuta-kashiwagi/Desktop/Unity/MyGames/ReleaseGame/ChildChallenge/Library/Il2cppBuildCache/Android/armeabi-v7a/il2cppOutput/UnityEngine.SharedInternalsModule_Attr.cpp","/Users/yuta-kashiwagi/Desktop/Unity/MyGames/ReleaseGame/ChildChallenge/Library/Il2cppBuildCache/Android/armeabi-v7a/il2cppOutput/UnityEngine.SharedInternalsModule_CodeGen.c","/Users/yuta-kashiwagi/Desktop/Unity/MyGames/ReleaseGame/ChildChallenge/Library/Il2cppBuildCache/Android/armeabi-v7a/il2cppOutput/UnityEngine.SpriteShapeModule.cpp","/Users/yuta-kashiwagi/Desktop/Unity/MyGames/ReleaseGame/ChildChallenge/Library/Il2cppBuildCache/Android/armeabi-v7a/il2cppOutput/UnityEngine.SpriteShapeModule_Attr.cpp","/Users/yuta-kashiwagi/Desktop/Unity/MyGames/ReleaseGame/ChildChallenge/Library/Il2cppBuildCache/Android/armeabi-v7a/il2cppOutput/UnityEngine.SpriteShapeModule_CodeGen.c","/Users/yuta-kashiwagi/Desktop/Unity/MyGames/ReleaseGame/ChildChallenge/Library/Il2cppBuildCache/Android/armeabi-v7a/il2cppOutput/UnityEngine.TextRenderingModule.cpp","/Users/yuta-kashiwagi/Desktop/Unity/MyGames/ReleaseGame/ChildChallenge/Library/Il2cppBuildCache/Android/armeabi-v7a/il2cppOutput/UnityEngine.TextRenderingModule_Attr.cpp","/Users/yuta-kashiwagi/Desktop/Unity/MyGames/ReleaseGame/ChildChallenge/Library/Il2cppBuildCache/Android/armeabi-v7a/il2cppOutput/UnityEngine.TextRenderingModule_CodeGen.c","/Users/yuta-kashiwagi/Desktop/Unity/MyGames/ReleaseGame/ChildChallenge/Library/Il2cppBuildCache/Android/armeabi-v7a/il2cppOutput/UnityEngine.TilemapModule.cpp","/Users/yuta-kashiwagi/Desktop/Unity/MyGames/ReleaseGame/ChildChallenge/Library/Il2cppBuildCache/Android/armeabi-v7a/il2cppOutput/UnityEngine.TilemapModule_Attr.cpp","/Users/yuta-kashiwagi/Desktop/Unity/MyGames/ReleaseGame/ChildChallenge/Library/Il2cppBuildCache/Android/armeabi-v7a/il2cppOutput/UnityEngine.TilemapModule_CodeGen.c","/Users/yuta-kashiwagi/Desktop/Unity/MyGames/ReleaseGame/ChildChallenge/Library/Il2cppBuildCache/Android/armeabi-v7a/il2cppOutput/UnityEngine.UI.cpp","/Users/yuta-kashiwagi/Desktop/Unity/MyGames/ReleaseGame/ChildChallenge/Library/Il2cppBuildCache/Android/armeabi-v7a/il2cppOutput/UnityEngine.UI1.cpp","/Users/yuta-kashiwagi/Desktop/Unity/MyGames/ReleaseGame/ChildChallenge/Library/Il2cppBuildCache/Android/armeabi-v7a/il2cppOutput/UnityEngine.UI2.cpp","/Users/yuta-kashiwagi/Desktop/Unity/MyGames/ReleaseGame/ChildChallenge/Library/Il2cppBuildCache/Android/armeabi-v7a/il2cppOutput/UnityEngine.UI3.cpp","/Users/yuta-kashiwagi/Desktop/Unity/MyGames/ReleaseGame/ChildChallenge/Library/Il2cppBuildCache/Android/armeabi-v7a/il2cppOutput/UnityEngine.UIModule.cpp","/Users/yuta-kashiwagi/Desktop/Unity/MyGames/ReleaseGame/ChildChallenge/Library/Il2cppBuildCache/Android/armeabi-v7a/il2cppOutput/UnityEngine.UIModule_Attr.cpp","/Users/yuta-kashiwagi/Desktop/Unity/MyGames/ReleaseGame/ChildChallenge/Library/Il2cppBuildCache/Android/armeabi-v7a/il2cppOutput/UnityEngine.UIModule_CodeGen.c","/Users/yuta-kashiwagi/Desktop/Unity/MyGames/ReleaseGame/ChildChallenge/Library/Il2cppBuildCache/Android/armeabi-v7a/il2cppOutput/UnityEngine.UI_Attr.cpp","/Users/yuta-kashiwagi/Desktop/Unity/MyGames/ReleaseGame/ChildChallenge/Library/Il2cppBuildCache/Android/armeabi-v7a/il2cppOutput/UnityEngine.UI_CodeGen.c","/Users/yuta-kashiwagi/Desktop/Unity/MyGames/ReleaseGame/ChildChallenge/Library/Il2cppBuildCache/Android/armeabi-v7a/il2cppOutput/UnityEngine.cpp","/Users/yuta-kashiwagi/Desktop/Unity/MyGames/ReleaseGame/ChildChallenge/Library/Il2cppBuildCache/Android/armeabi-v7a/il2cppOutput/UnityEngine_Attr.cpp","/Users/yuta-kashiwagi/Desktop/Unity/MyGames/ReleaseGame/ChildChallenge/Library/Il2cppBuildCache/Android/armeabi-v7a/il2cppOutput/UnityEngine_CodeGen.c","/Users/yuta-kashiwagi/Desktop/Unity/MyGames/ReleaseGame/ChildChallenge/Library/Il2cppBuildCache/Android/armeabi-v7a/il2cppOutput/UnresolvedVirtualCallStubs.cpp","/Users/yuta-kashiwagi/Desktop/Unity/MyGames/ReleaseGame/ChildChallenge/Library/Il2cppBuildCache/Android/armeabi-v7a/il2cppOutput/mscorlib.cpp","/Users/yuta-kashiwagi/Desktop/Unity/MyGames/ReleaseGame/ChildChallenge/Library/Il2cppBuildCache/Android/armeabi-v7a/il2cppOutput/mscorlib1.cpp","/Users/yuta-kashiwagi/Desktop/Unity/MyGames/ReleaseGame/ChildChallenge/Library/Il2cppBuildCache/Android/armeabi-v7a/il2cppOutput/mscorlib10.cpp","/Users/yuta-kashiwagi/Desktop/Unity/MyGames/ReleaseGame/ChildChallenge/Library/Il2cppBuildCache/Android/armeabi-v7a/il2cppOutput/mscorlib11.cpp","/Users/yuta-kashiwagi/Desktop/Unity/MyGames/ReleaseGame/ChildChallenge/Library/Il2cppBuildCache/Android/armeabi-v7a/il2cppOutput/mscorlib12.cpp","/Users/yuta-kashiwagi/Desktop/Unity/MyGames/ReleaseGame/ChildChallenge/Library/Il2cppBuildCache/Android/armeabi-v7a/il2cppOutput/mscorlib13.cpp","/Users/yuta-kashiwagi/Desktop/Unity/MyGames/ReleaseGame/ChildChallenge/Library/Il2cppBuildCache/Android/armeabi-v7a/il2cppOutput/mscorlib14.cpp","/Users/yuta-kashiwagi/Desktop/Unity/MyGames/ReleaseGame/ChildChallenge/Library/Il2cppBuildCache/Android/armeabi-v7a/il2cppOutput/mscorlib15.cpp","/Users/yuta-kashiwagi/Desktop/Unity/MyGames/ReleaseGame/ChildChallenge/Library/Il2cppBuildCache/Android/armeabi-v7a/il2cppOutput/mscorlib16.cpp","/Users/yuta-kashiwagi/Desktop/Unity/MyGames/ReleaseGame/ChildChallenge/Library/Il2cppBuildCache/Android/armeabi-v7a/il2cppOutput/mscorlib2.cpp","/Users/yuta-kashiwagi/Desktop/Unity/MyGames/ReleaseGame/ChildChallenge/Library/Il2cppBuildCache/Android/armeabi-v7a/il2cppOutput/mscorlib3.cpp","/Users/yuta-kashiwagi/Desktop/Unity/MyGames/ReleaseGame/ChildChallenge/Library/Il2cppBuildCache/Android/armeabi-v7a/il2cppOutput/mscorlib4.cpp","/Users/yuta-kashiwagi/Desktop/Unity/MyGames/ReleaseGame/ChildChallenge/Library/Il2cppBuildCache/Android/armeabi-v7a/il2cppOutput/mscorlib5.cpp","/Users/yuta-kashiwagi/Desktop/Unity/MyGames/ReleaseGame/ChildChallenge/Library/Il2cppBuildCache/Android/armeabi-v7a/il2cppOutput/mscorlib6.cpp","/Users/yuta-kashiwagi/Desktop/Unity/MyGames/ReleaseGame/ChildChallenge/Library/Il2cppBuildCache/Android/armeabi-v7a/il2cppOutput/mscorlib7.cpp","/Users/yuta-kashiwagi/Desktop/Unity/MyGames/ReleaseGame/ChildChallenge/Library/Il2cppBuildCache/Android/armeabi-v7a/il2cppOutput/mscorlib8.cpp","/Users/yuta-kashiwagi/Desktop/Unity/MyGames/ReleaseGame/ChildChallenge/Library/Il2cppBuildCache/Android/armeabi-v7a/il2cppOutput/mscorlib9.cpp","/Users/yuta-kashiwagi/Desktop/Unity/MyGames/ReleaseGame/ChildChallenge/Library/Il2cppBuildCache/Android/armeabi-v7a/il2cppOutput/mscorlib_Attr.cpp","/Users/yuta-kashiwagi/Desktop/Unity/MyGames/ReleaseGame/ChildChallenge/Library/Il2cppBuildCache/Android/armeabi-v7a/il2cppOutput/mscorlib_CodeGen.c","/Applications/Unity/Hub/Editor/2020.3.16f1/Unity.app/Contents/Tools/MapFileParser/MapFileParser","/Applications/Unity/Hub/Editor/2020.3.16f1/PlaybackEngines/AndroidPlayer/Variations/il2cpp/Release/StaticLibs/arm64-v8a/baselib.a","/Applications/Unity/Hub/Editor/2020.3.16f1/PlaybackEngines/AndroidPlayer/Variations/il2cpp/Release/StaticLibs/arm64-v8a/libunityruntime.a","\"/Applications/Unity/Hub/Editor/2020.3.16f1/Unity.app/Contents/il2cpp/build/deploy/netcoreapp3.1/il2cpp\""],"oldvalue":["/Users/yuta-kashiwagi/Desktop/Unity/MyGames/ReleaseGame/ChildChallenge/Temp/StagingArea/assets/bin/Data/Managed","/Users/yuta-kashiwagi/Desktop/Unity/MyGames/ReleaseGame/ChildChallenge/Temp/StagingArea/assets/bin/Data/Managed/Assembly-CSharp-firstpass.dll","/Users/yuta-kashiwagi/Desktop/Unity/MyGames/ReleaseGame/ChildChallenge/Temp/StagingArea/assets/bin/Data/Managed/Assembly-CSharp.dll","/Users/yuta-kashiwagi/Desktop/Unity/MyGames/ReleaseGame/ChildChallenge/Temp/StagingArea/assets/bin/Data/Managed/DOTween.dll","/Users/yuta-kashiwagi/Desktop/Unity/MyGames/ReleaseGame/ChildChallenge/Temp/StagingArea/assets/bin/Data/Managed/Mono.Security.dll","/Users/yuta-kashiwagi/Desktop/Unity/MyGames/ReleaseGame/ChildChallenge/Temp/StagingArea/assets/bin/Data/Managed/System.Configuration.dll","/Users/yuta-kashiwagi/Desktop/Unity/MyGames/ReleaseGame/ChildChallenge/Temp/StagingArea/assets/bin/Data/Managed/System.Core.dll","/Users/yuta-kashiwagi/Desktop/Unity/MyGames/ReleaseGame/ChildChallenge/Temp/StagingArea/assets/bin/Data/Managed/System.Xml.dll","/Users/yuta-kashiwagi/Desktop/Unity/MyGames/ReleaseGame/ChildChallenge/Temp/StagingArea/assets/bin/Data/Managed/System.dll","/Users/yuta-kashiwagi/Desktop/Unity/MyGames/ReleaseGame/ChildChallenge/Temp/StagingArea/assets/bin/Data/Managed/Unity.2D.IK.Runtime.dll","/Users/yuta-kashiwagi/Desktop/Unity/MyGames/ReleaseGame/ChildChallenge/Temp/StagingArea/assets/bin/Data/Managed/UnityEngine.AndroidJNIModule.dll","/Users/yuta-kashiwagi/Desktop/Unity/MyGames/ReleaseGame/ChildChallenge/Temp/StagingArea/assets/bin/Data/Managed/UnityEngine.AnimationModule.dll","/Users/yuta-kashiwagi/Desktop/Unity/MyGames/ReleaseGame/ChildChallenge/Temp/StagingArea/assets/bin/Data/Managed/UnityEngine.AudioModule.dll","/Users/yuta-kashiwagi/Desktop/Unity/MyGames/ReleaseGame/ChildChallenge/Temp/StagingArea/assets/bin/Data/Managed/UnityEngine.CoreModule.dll","/Users/yuta-kashiwagi/Desktop/Unity/MyGames/ReleaseGame/ChildChallenge/Temp/StagingArea/assets/bin/Data/Managed/UnityEngine.GridModule.dll","/Users/yuta-kashiwagi/Desktop/Unity/MyGames/ReleaseGame/ChildChallenge/Temp/StagingArea/assets/bin/Data/Managed/UnityEngine.IMGUIModule.dll","/Users/yuta-kashiwagi/Desktop/Unity/MyGames/ReleaseGame/ChildChallenge/Temp/StagingArea/assets/bin/Data/Managed/UnityEngine.InputLegacyModule.dll","/Users/yuta-kashiwagi/Desktop/Unity/MyGames/ReleaseGame/ChildChallenge/Temp/StagingArea/assets/bin/Data/Managed/UnityEngine.ParticleSystemModule.dll","/Users/yuta-kashiwagi/Desktop/Unity/MyGames/ReleaseGame/ChildChallenge/Temp/StagingArea/assets/bin/Data/Managed/UnityEngine.Physics2DModule.dll","/Users/yuta-kashiwagi/Desktop/Unity/MyGames/ReleaseGame/ChildChallenge/Temp/StagingArea/assets/bin/Data/Managed/UnityEngine.PhysicsModule.dll","/Users/yuta-kashiwagi/Desktop/Unity/MyGames/ReleaseGame/ChildChallenge/Temp/StagingArea/assets/bin/Data/Managed/UnityEngine.SharedInternalsModule.dll","/Users/yuta-kashiwagi/Desktop/Unity/MyGames/ReleaseGame/ChildChallenge/Temp/StagingArea/assets/bin/Data/Managed/UnityEngine.SpriteShapeModule.dll","/Users/yuta-kashiwagi/Desktop/Unity/MyGames/ReleaseGame/ChildChallenge/Temp/StagingArea/assets/bin/Data/Managed/UnityEngine.TextRenderingModule.dll","/Users/yuta-kashiwagi/Desktop/Unity/MyGames/ReleaseGame/ChildChallenge/Temp/StagingArea/assets/bin/Data/Managed/UnityEngine.TilemapModule.dll","/Users/yuta-kashiwagi/Desktop/Unity/MyGames/ReleaseGame/ChildChallenge/Temp/StagingArea/assets/bin/Data/Managed/UnityEngine.UI.dll","/Users/yuta-kashiwagi/Desktop/Unity/MyGames/ReleaseGame/ChildChallenge/Temp/StagingArea/assets/bin/Data/Managed/UnityEngine.UIModule.dll","/Users/yuta-kashiwagi/Desktop/Unity/MyGames/ReleaseGame/ChildChallenge/Temp/StagingArea/assets/bin/Data/Managed/UnityEngine.dll","/Users/yuta-kashiwagi/Desktop/Unity/MyGames/ReleaseGame/ChildChallenge/Temp/StagingArea/assets/bin/Data/Managed/mscorlib.dll","/Applications/Unity/Hub/Editor/2020.3.16f1/Unity.app/Contents/Tools/MapFileParser/MapFileParser","/Applications/Unity/Hub/Editor/2020.3.16f1/PlaybackEngines/AndroidPlayer/Variations/il2cpp/Release/StaticLibs/arm64-v8a/baselib.a","/Applications/Unity/Hub/Editor/2020.3.16f1/PlaybackEngines/AndroidPlayer/Variations/il2cpp/Release/StaticLibs/arm64-v8a/libunityruntime.a","\"/Applications/Unity/Hub/Editor/2020.3.16f1/Unity.app/Contents/il2cpp/build/deploy/netcoreapp3.1/il2cpp\""],"dependency":"explicit"}]}
{"msg":"noderesult","annotation":"Il2Cpp /Users/yuta-kashiwagi/Desktop/Unity/MyGames/ReleaseGame/ChildChallenge/Library/Il2cppBuildCache/Android/arm64-v8a/Native/arm64-v8a/libil2cpp.so","index":1,"exitcode":0}
