{
  "Nodes": [
    {
      "Annotation": "all_tundra_nodes",
      "Action": "",
      "Inputs": [],
      "Outputs": [],
      "TargetDirectories": [],
      "PassIndex": 0,
      "ToBuildDependencies": [
        1
      ],
      "ToUseDependencies": [],
      "OverwriteOutputs": true,
      "FrontendResponseFiles": [],
      "AllowUnexpectedOutput": true,
      "AllowedOutputSubstrings": [],
      "DebugActionIndex": 0
    },
    {
      "Annotation": "Il2Cpp /Users/yuta-kashiwagi/Desktop/Unity/MyGames/ReleaseGame/ChildChallenge/Library/Il2cppBuildCache/Android/armeabi-v7a/Native/armeabi-v7a/libil2cpp.so",
      "Action": "\"/Applications/Unity/Hub/Editor/2020.3.16f1/Unity.app/Contents/il2cpp/build/deploy/netcoreapp3.1/il2cpp\" --convert-to-cpp --emit-null-checks --enable-array-bounds-check --dotnetprofile=\"unityaot\" --compile-cpp --libil2cpp-static --platform=\"Android\" --architecture=\"ARMv7\" --configuration=\"Release\" --outputpath=\"/Users/yuta-kashiwagi/Desktop/Unity/MyGames/ReleaseGame/ChildChallenge/Library/Il2cppBuildCache/Android/armeabi-v7a/Native/armeabi-v7a/libil2cpp.so\" --cachedirectory=\"/Users/yuta-kashiwagi/Desktop/Unity/MyGames/ReleaseGame/ChildChallenge/Assets/../Library/il2cpp_android_armeabi-v7a/il2cpp_cache\" --additional-include-directories=\"/Applications/Unity/Hub/Editor/2020.3.16f1/PlaybackEngines/AndroidPlayer/Tools/bdwgc/include\" --additional-include-directories=\"/Applications/Unity/Hub/Editor/2020.3.16f1/PlaybackEngines/AndroidPlayer/Tools/libil2cpp/include\" --baselib-directory=\"/Applications/Unity/Hub/Editor/2020.3.16f1/PlaybackEngines/AndroidPlayer/Variations/il2cpp/Release/StaticLibs/armeabi-v7a\" --avoid-dynamic-library-copy --tool-chain-path=\"/Applications/Unity/Hub/Editor/2020.3.16f1/PlaybackEngines/AndroidPlayer/NDK\" --profiler-report --map-file-parser=\"/Applications/Unity/Hub/Editor/2020.3.16f1/Unity.app/Contents/Tools/MapFileParser/MapFileParser\" --directory=\"/Users/yuta-kashiwagi/Desktop/Unity/MyGames/ReleaseGame/ChildChallenge/Temp/StagingArea/assets/bin/Data/Managed\" --generatedcppdir=\"/Users/yuta-kashiwagi/Desktop/Unity/MyGames/ReleaseGame/ChildChallenge/Library/Il2cppBuildCache/Android/armeabi-v7a/il2cppOutput\"",
      "Inputs": [
        "/Users/yuta-kashiwagi/Desktop/Unity/MyGames/ReleaseGame/ChildChallenge/Temp/StagingArea/assets/bin/Data/Managed",
        "/Users/yuta-kashiwagi/Desktop/Unity/MyGames/ReleaseGame/ChildChallenge/Temp/StagingArea/assets/bin/Data/Managed/Assembly-CSharp-firstpass.dll",
        "/Users/yuta-kashiwagi/Desktop/Unity/MyGames/ReleaseGame/ChildChallenge/Temp/StagingArea/assets/bin/Data/Managed/Assembly-CSharp.dll",
        "/Users/yuta-kashiwagi/Desktop/Unity/MyGames/ReleaseGame/ChildChallenge/Temp/StagingArea/assets/bin/Data/Managed/DOTween.dll",
        "/Users/yuta-kashiwagi/Desktop/Unity/MyGames/ReleaseGame/ChildChallenge/Temp/StagingArea/assets/bin/Data/Managed/Mono.Security.dll",
        "/Users/yuta-kashiwagi/Desktop/Unity/MyGames/ReleaseGame/ChildChallenge/Temp/StagingArea/assets/bin/Data/Managed/System.Configuration.dll",
        "/Users/yuta-kashiwagi/Desktop/Unity/MyGames/ReleaseGame/ChildChallenge/Temp/StagingArea/assets/bin/Data/Managed/System.Core.dll",
        "/Users/yuta-kashiwagi/Desktop/Unity/MyGames/ReleaseGame/ChildChallenge/Temp/StagingArea/assets/bin/Data/Managed/System.Xml.dll",
        "/Users/yuta-kashiwagi/Desktop/Unity/MyGames/ReleaseGame/ChildChallenge/Temp/StagingArea/assets/bin/Data/Managed/System.dll",
        "/Users/yuta-kashiwagi/Desktop/Unity/MyGames/ReleaseGame/ChildChallenge/Temp/StagingArea/assets/bin/Data/Managed/Unity.2D.IK.Runtime.dll",
        "/Users/yuta-kashiwagi/Desktop/Unity/MyGames/ReleaseGame/ChildChallenge/Temp/StagingArea/assets/bin/Data/Managed/UnityEngine.AndroidJNIModule.dll",
        "/Users/yuta-kashiwagi/Desktop/Unity/MyGames/ReleaseGame/ChildChallenge/Temp/StagingArea/assets/bin/Data/Managed/UnityEngine.AnimationModule.dll",
        "/Users/yuta-kashiwagi/Desktop/Unity/MyGames/ReleaseGame/ChildChallenge/Temp/StagingArea/assets/bin/Data/Managed/UnityEngine.AudioModule.dll",
        "/Users/yuta-kashiwagi/Desktop/Unity/MyGames/ReleaseGame/ChildChallenge/Temp/StagingArea/assets/bin/Data/Managed/UnityEngine.CoreModule.dll",
        "/Users/yuta-kashiwagi/Desktop/Unity/MyGames/ReleaseGame/ChildChallenge/Temp/StagingArea/assets/bin/Data/Managed/UnityEngine.GridModule.dll",
        "/Users/yuta-kashiwagi/Desktop/Unity/MyGames/ReleaseGame/ChildChallenge/Temp/StagingArea/assets/bin/Data/Managed/UnityEngine.IMGUIModule.dll",
        "/Users/yuta-kashiwagi/Desktop/Unity/MyGames/ReleaseGame/ChildChallenge/Temp/StagingArea/assets/bin/Data/Managed/UnityEngine.InputLegacyModule.dll",
        "/Users/yuta-kashiwagi/Desktop/Unity/MyGames/ReleaseGame/ChildChallenge/Temp/StagingArea/assets/bin/Data/Managed/UnityEngine.ParticleSystemModule.dll",
        "/Users/yuta-kashiwagi/Desktop/Unity/MyGames/ReleaseGame/ChildChallenge/Temp/StagingArea/assets/bin/Data/Managed/UnityEngine.Physics2DModule.dll",
        "/Users/yuta-kashiwagi/Desktop/Unity/MyGames/ReleaseGame/ChildChallenge/Temp/StagingArea/assets/bin/Data/Managed/UnityEngine.PhysicsModule.dll",
        "/Users/yuta-kashiwagi/Desktop/Unity/MyGames/ReleaseGame/ChildChallenge/Temp/StagingArea/assets/bin/Data/Managed/UnityEngine.SharedInternalsModule.dll",
        "/Users/yuta-kashiwagi/Desktop/Unity/MyGames/ReleaseGame/ChildChallenge/Temp/StagingArea/assets/bin/Data/Managed/UnityEngine.SpriteShapeModule.dll",
        "/Users/yuta-kashiwagi/Desktop/Unity/MyGames/ReleaseGame/ChildChallenge/Temp/StagingArea/assets/bin/Data/Managed/UnityEngine.TextRenderingModule.dll",
        "/Users/yuta-kashiwagi/Desktop/Unity/MyGames/ReleaseGame/ChildChallenge/Temp/StagingArea/assets/bin/Data/Managed/UnityEngine.TilemapModule.dll",
        "/Users/yuta-kashiwagi/Desktop/Unity/MyGames/ReleaseGame/ChildChallenge/Temp/StagingArea/assets/bin/Data/Managed/UnityEngine.UI.dll",
        "/Users/yuta-kashiwagi/Desktop/Unity/MyGames/ReleaseGame/ChildChallenge/Temp/StagingArea/assets/bin/Data/Managed/UnityEngine.UIModule.dll",
        "/Users/yuta-kashiwagi/Desktop/Unity/MyGames/ReleaseGame/ChildChallenge/Temp/StagingArea/assets/bin/Data/Managed/UnityEngine.dll",
        "/Users/yuta-kashiwagi/Desktop/Unity/MyGames/ReleaseGame/ChildChallenge/Temp/StagingArea/assets/bin/Data/Managed/mscorlib.dll",
        "/Applications/Unity/Hub/Editor/2020.3.16f1/Unity.app/Contents/Tools/MapFileParser/MapFileParser",
        "/Applications/Unity/Hub/Editor/2020.3.16f1/PlaybackEngines/AndroidPlayer/Variations/il2cpp/Release/StaticLibs/armeabi-v7a/baselib.a",
        "/Applications/Unity/Hub/Editor/2020.3.16f1/PlaybackEngines/AndroidPlayer/Variations/il2cpp/Release/StaticLibs/armeabi-v7a/libunityruntime.a",
        "\"/Applications/Unity/Hub/Editor/2020.3.16f1/Unity.app/Contents/il2cpp/build/deploy/netcoreapp3.1/il2cpp\""
      ],
      "Outputs": [
        "/Users/yuta-kashiwagi/Desktop/Unity/MyGames/ReleaseGame/ChildChallenge/Library/Il2cppBuildCache/Android/armeabi-v7a/Native/armeabi-v7a/libil2cpp.so"
      ],
      "TargetDirectories": [],
      "PassIndex": 0,
      "ToBuildDependencies": [],
      "ToUseDependencies": [],
      "OverwriteOutputs": false,
      "FrontendResponseFiles": [],
      "AllowUnexpectedOutput": true,
      "AllowedOutputSubstrings": [],
      "DebugActionIndex": 1
    }
  ],
  "FileSignatures": [
    {
      "File": "../../../../../../../../../../../Applications/Unity/Hub/Editor/2020.3.16f1/PlaybackEngines/AndroidPlayer/Tools/bdwgc/include"
    },
    {
      "File": "../../../../../../../../../../../Applications/Unity/Hub/Editor/2020.3.16f1/PlaybackEngines/AndroidPlayer/Tools/libil2cpp/include"
    },
    {
      "File": "../../../../../../../../../../../Applications/Unity/Hub/Editor/2020.3.16f1/PlaybackEngines/AndroidPlayer/Variations/il2cpp/Release/StaticLibs/armeabi-v7a"
    },
    {
      "File": "../../../../../../../../../Library"
    },
    {
      "File": "../../../../Temp/StagingArea/assets/bin/Data/Managed"
    },
    {
      "File": "artifacts/buildprogram/tundra_buildprogram.dag.json"
    },
    {
      "File": "il2cpp_settings.json"
    },
    {
      "File": "unitylinker_settings.json"
    }
  ],
  "GlobSignatures": [
    {
      "Path": "../../../../Temp/StagingArea/assets/bin/Data/Managed"
    },
    {
      "Path": "../../../../../../../../../../../Applications/Unity/Hub/Editor/2020.3.16f1/PlaybackEngines/AndroidPlayer/Variations/il2cpp/Release/StaticLibs/armeabi-v7a",
      "Recurse": 1
    }
  ],
  "ContentDigestExtensions": [
    ".rsp",
    ".dll",
    ".exe",
    ".txt",
    ".c",
    ".cpp",
    ".h",
    ".cs",
    ".hpp"
  ],
  "StructuredLogFileName": "artifacts/tundra.log.json",
  "StateFileName": "artifacts/TundraBuildState.state",
  "StateFileNameTmp": "artifacts/TundraBuildState.state.tmp",
  "ScanCacheFileName": "artifacts/tundra.scancache",
  "ScanCacheFileNameTmp": "artifacts/tundra.scancache.tmp",
  "DigestCacheFileName": "artifacts/tundra.digestcache",
  "DigestCacheFileNameTmp": "artifacts/tundra.digestcache.tmp",
  "DirectoriesCausingImplicitDependencies": [],
        "NamedNodes": {
          "all_tundra_nodes": 0
        }
,  "DefaultNodes": [
    0
  ],
  "SharedResources": [],
  "Scanners": [],
  "Identifier": "artifacts/tundra.dag.json",
  "BuildTitle": "Bee",
  "RelativePathToRoot": ".."
}