{
"instructions_readme": "1) Open Chrome, 2) go to chrome://tracing, 3) click Load, 4) navigate to this file.",
"traceEvents":[
{ "cat":"", "pid":1, "tid":0, "ts":0, "ph":"M", "name":"process_name", "args": { "name":"tundra" } }
,{ "pid":1, "tid":0, "ts":1659425063776472, "dur":144, "ph":"X", "name": "DriverCheckDagSignatures",  "args": { "durationMS":0, "detail":"" }}
,{ "pid":1, "tid":0, "ts":1659425063776616, "dur":369, "ph":"X", "name": "DriverInitData",  "args": { "durationMS":0, "detail":"" }}
,{ "pid":1, "tid":0, "ts":1659425063777004, "dur":44463, "ph":"X", "name": "Tundra",  "args": { "durationMS":44, "detail":"RemoveStaleOutputs" }}
,{ "pid":1, "tid":0, "ts":1659425063821472, "dur":0, "ph":"X", "name": "Tundra",  "args": { "durationMS":0, "detail":"PrepareNodes" }}
,{ "pid":1, "tid":0, "ts":1659425063821472, "dur":253, "ph":"X", "name": "Tundra",  "args": { "durationMS":0, "detail":"BuildQueueInit" }}
,{ "pid":1, "tid":0, "ts":1659425070055715, "dur":214, "ph":"X", "name": "JoinBuildThread",  "args": { "durationMS":0, "detail":"" }}
,{ "pid":1, "tid":0, "ts":1659425070055940, "dur":3, "ph":"X", "name": "JoinBuildThread",  "args": { "durationMS":0, "detail":"" }}
,{ "pid":1, "tid":0, "ts":1659425070055946, "dur":4, "ph":"X", "name": "JoinBuildThread",  "args": { "durationMS":0, "detail":"" }}
,{ "pid":1, "tid":0, "ts":1659425070055952, "dur":2, "ph":"X", "name": "JoinBuildThread",  "args": { "durationMS":0, "detail":"" }}
,{ "pid":1, "tid":0, "ts":1659425070055956, "dur":2, "ph":"X", "name": "JoinBuildThread",  "args": { "durationMS":0, "detail":"" }}
,{ "pid":1, "tid":0, "ts":1659425070055960, "dur":2, "ph":"X", "name": "JoinBuildThread",  "args": { "durationMS":0, "detail":"" }}
,{ "pid":1, "tid":0, "ts":1659425070055964, "dur":2, "ph":"X", "name": "JoinBuildThread",  "args": { "durationMS":0, "detail":"" }}
,{ "pid":1, "tid":0, "ts":1659425070055967, "dur":3, "ph":"X", "name": "JoinBuildThread",  "args": { "durationMS":0, "detail":"" }}
,{ "pid":1, "tid":0, "ts":1659425070055971, "dur":0, "ph":"X", "name": "SharedResourceDestroy",  "args": { "durationMS":0, "detail":"" }}
,{ "pid":1, "tid":0, "ts":1659425070055982, "dur":740, "ph":"X", "name": "Tundra",  "args": { "durationMS":1, "detail":"Write AllBuiltNodes" }}
,{ "pid":1, "tid":1, "ts":1659425063821536, "dur":216, "ph":"X", "name": "WaitingForWork", "cname":"thread_state_sleeping",  "args": { "durationMS":0, "detail":"" }}
,{ "pid":1, "tid":1, "ts":1659425063821965, "dur":1317, "ph":"X", "name": "CheckInputSignature",  "args": { "durationMS":1, "detail":"Il2Cpp /Users/yuta-kashiwagi/Desktop/Unity/MyGames/ReleaseGame/ChildChallenge/Library/Il2cppBuildCache/iOS/il2cppOutput/Data/Metadata/global-metadata.dat" }}
,{ "pid":1, "tid":1, "ts":1659425063823502, "dur":6147162, "ph":"X", "name": "Il2Cpp",  "args": { "durationMS":6147, "detail":"/Users/yuta-kashiwagi/Desktop/Unity/MyGames/ReleaseGame/ChildChallenge/Library/Il2cppBuildCache/iOS/il2cppOutput/Data/Metadata/global-metadata.dat" }}
,{ "pid":1, "tid":1, "ts":1659425069970691, "dur":89, "ph":"X", "name": "CheckInputSignature",  "args": { "durationMS":0, "detail":"Copy Additional C++ File /Users/yuta-kashiwagi/Desktop/Unity/MyGames/ReleaseGame/ChildChallenge/Library/Il2cppBuildCache/iOS/il2cppOutput/UnityClassRegistration.cpp" }}
,{ "pid":1, "tid":1, "ts":1659425069970802, "dur":84866, "ph":"X", "name": "Copy",  "args": { "durationMS":85, "detail":"Additional C++ File /Users/yuta-kashiwagi/Desktop/Unity/MyGames/ReleaseGame/ChildChallenge/Library/Il2cppBuildCache/iOS/il2cppOutput/UnityClassRegistration.cpp" }}
,{ "pid":1, "tid":1, "ts":1659425070055677, "dur":62, "ph":"X", "name": "WaitingForWork", "cname":"thread_state_sleeping",  "args": { "durationMS":0, "detail":"" }}
,{ "pid":1, "tid":1, "ts":1659425070055740, "dur":2, "ph":"X", "name": "Exiting",  "args": { "durationMS":0, "detail":"BuildLoop" }}
,{ "pid":1, "tid":2, "ts":1659425063821565, "dur":6234264, "ph":"X", "name": "WaitingForWork", "cname":"thread_state_sleeping",  "args": { "durationMS":6234, "detail":"" }}
,{ "pid":1, "tid":2, "ts":1659425070055844, "dur":30, "ph":"X", "name": "Exiting",  "args": { "durationMS":0, "detail":"BuildLoop" }}
,{ "pid":1, "tid":3, "ts":1659425063821588, "dur":6234153, "ph":"X", "name": "WaitingForWork", "cname":"thread_state_sleeping",  "args": { "durationMS":6234, "detail":"" }}
,{ "pid":1, "tid":3, "ts":1659425070055764, "dur":79, "ph":"X", "name": "Exiting",  "args": { "durationMS":0, "detail":"BuildLoop" }}
,{ "pid":1, "tid":4, "ts":1659425063821617, "dur":6234287, "ph":"X", "name": "WaitingForWork", "cname":"thread_state_sleeping",  "args": { "durationMS":6234, "detail":"" }}
,{ "pid":1, "tid":4, "ts":1659425070055910, "dur":2, "ph":"X", "name": "Exiting",  "args": { "durationMS":0, "detail":"BuildLoop" }}
,{ "pid":1, "tid":5, "ts":1659425063821629, "dur":6234265, "ph":"X", "name": "WaitingForWork", "cname":"thread_state_sleeping",  "args": { "durationMS":6234, "detail":"" }}
,{ "pid":1, "tid":5, "ts":1659425070055902, "dur":2, "ph":"X", "name": "Exiting",  "args": { "durationMS":0, "detail":"BuildLoop" }}
,{ "pid":1, "tid":6, "ts":1659425063821664, "dur":6234256, "ph":"X", "name": "WaitingForWork", "cname":"thread_state_sleeping",  "args": { "durationMS":6234, "detail":"" }}
,{ "pid":1, "tid":6, "ts":1659425070055925, "dur":2, "ph":"X", "name": "Exiting",  "args": { "durationMS":0, "detail":"BuildLoop" }}
,{ "pid":1, "tid":7, "ts":1659425063821703, "dur":6234061, "ph":"X", "name": "WaitingForWork", "cname":"thread_state_sleeping",  "args": { "durationMS":6234, "detail":"" }}
,{ "pid":1, "tid":7, "ts":1659425070055823, "dur":21, "ph":"X", "name": "Exiting",  "args": { "durationMS":0, "detail":"BuildLoop" }}
,{ "pid":1, "tid":8, "ts":1659425063821717, "dur":257, "ph":"X", "name": "WaitingForWork", "cname":"thread_state_sleeping",  "args": { "durationMS":0, "detail":"" }}
,{ "pid":1, "tid":8, "ts":1659425063821974, "dur":6148737, "ph":"X", "name": "WaitingForWork", "cname":"thread_state_sleeping",  "args": { "durationMS":6149, "detail":"" }}
,{ "pid":1, "tid":8, "ts":1659425069970717, "dur":81, "ph":"X", "name": "CheckInputSignature",  "args": { "durationMS":0, "detail":"Copy Additional C++ File /Users/yuta-kashiwagi/Desktop/Unity/MyGames/ReleaseGame/ChildChallenge/Library/Il2cppBuildCache/iOS/il2cppOutput/UnityICallRegistration.cpp" }}
,{ "pid":1, "tid":8, "ts":1659425069970820, "dur":84855, "ph":"X", "name": "Copy",  "args": { "durationMS":85, "detail":"Additional C++ File /Users/yuta-kashiwagi/Desktop/Unity/MyGames/ReleaseGame/ChildChallenge/Library/Il2cppBuildCache/iOS/il2cppOutput/UnityICallRegistration.cpp" }}
,{ "pid":1, "tid":8, "ts":1659425070055691, "dur":2, "ph":"X", "name": "CheckInputSignature",  "args": { "durationMS":0, "detail":"all_tundra_nodes" }}
,{ "pid":1, "tid":8, "ts":1659425070055697, "dur":150, "ph":"X", "name": "WaitingForWork", "cname":"thread_state_sleeping",  "args": { "durationMS":0, "detail":"" }}
,{ "pid":1, "tid":8, "ts":1659425070055847, "dur":0, "ph":"X", "name": "Exiting",  "args": { "durationMS":0, "detail":"BuildLoop" }}

]
}
